mYSpR_SLPgUVymYOvTQd_Q,5.0
yHTLTr-QN-loO_7XoxS8qg,3.0
M0RJELIvWleZ-Tkd6vdXFQ,4.5
RxKrw38oyeYszQ6guY5b1A,4.6
6p9TlP2I8S4agxYMNFSDjg,3.04
frIRW4BGhdAWbSsG5ev2ng,3.33333333333
FiXamVMgMf9U0VqFHDZSEA,3.04761904762
5UmKMjUEUNdYWqANhGckJw,3.5
EoAY1JSVeJriBzId8lUQwQ,2.70786516854
XhbC5Qj5nBcqcKLPRd8izQ,2.0
t_gan0EXAw8csKIeFyazJw,1.75
e_U_FnpdKVgNb4mUN2cU_Q,2.85714285714
fNGIbpazjTRdXgwRY_NIXA,3.8
F04xyOUA2xnUoCiWpx9iJA,3.0
Y4CcDDyMoDpK7BbpKawWjw,5.0
_qopVQ6_Mz6W7-Pmbi56GQ,3.66666666667
Eu3Iwje0YY8ectr-CxMgqg,4.5
wJr6kSA5dchdgOdwH6dZ2w,3.25
uLnDFdn011hEroQQMLmxNQ,3.88888888889
ISKLP0qxApATxRlUDob6Cg,3.47368421053
yXuao0pFz1AxB21vJjDf5w,3.5
1u2NauOy8xDj7aFQET680A,3.0
uI0LvTXFACid1308KFO5ew,3.05882352941
tv8cS4aaA1VDaInYgggb6g,3.1
5NW4lC-_X6iCiZ6vhAl_Pg,3.5
PK6aSizckHFWk8i0oxt5DA,1.7
TfvWSIAMFZ9zI3y2-K6wOA,2.66666666667
6ilJq_05xRgek_8qUp36-g,1.83333333333
UsFtqoBl7naz8AVUBZMjQQ,2.5
JDDeaNfb0JXD1NbznSIC9g,3.0
W7ysp8GLCBrs0GXIVwAcBQ,3.14285714286
3gmBc0qN_LtGbZAjTtHWZg,3.45
mVHrayjG3uZ_RLHkLj-AMg,4.75
zgy27FSnvwdINfk5cXBIyQ,3.5
iQLLIdmJSt6LQHSjpZERLA,4.0
b9WZJp5L1RZr4F1nxclOoQ,4.25
LTXS986DAz-4jE_sV2Ui4w,3.0
eznh0XjVtv924K-KYx_ilQ,2.85714285714
eT5Ck7Gg1dBJobca9VFovw,3.55555555556
cE27W9VPgO88Qxe4ol6y_g,2.0
LG_Dgv7u7P2ASDWU1RAyWQ,3.75
Sktj1eHQFuVa-M4bgnEh8g,4.0
rdATJvFQK4C73NIQ3zoY3w,4.25
FituZ4jYzRe41ac9uvcHaQ,4.33333333333
LQFWH1AKJlXGmEBlIKsBCw,4.14285714286
DMy5IG-dNrH4ARk96KngEA,2.125
zaXDakTd3RXyOa7sMrUE1g,4.25
SQ0j7bgSTazkVQlF5AnqyQ,2.44444444444
HwwEfnZKLNOUoqfgcwAgcQ,3.5
wqu7ILomIOPSduRwoWp4AQ,4.09090909091
6o3RK6rTcN3nw-j-r2nQmA,2.25
oPX8bpZ3dqviYQuic0Ahqw,4.33333333333
sbW8qHJgzEIH42B0S-3New,2.58333333333
MKyk4F4HSzHF8v-4cYe3Ww,3.48387096774
sZ4uYs99km644ZMR1TO76A,2.66666666667
WETE_LykpcnrC1sFcQ5EGg,3.14285714286
rv7CY8G_XibTx82YhuqQRw,3.4
KayYbHCt-RkbGcPdGOThNg,3.89473684211
usSROUMiAgPcxV3Ym0OxMQ,3.59375
Cdcus0NADzyY3XiJM2O5Sg,2.75
P1fJb2WQ1mXoiudj8UE44w,3.47435897436
g10zmpUzmMJOOIjj_JJPvg,3.375
udjqHtgz7_eh5sExzAkP-g,5.0
-taSf0shFSUKy9iCXnySsA,2.4
xxWFOD46ubTSF3nPRM19BA,1.71428571429
tU-YtoW339PXJmUGSix_AQ,2.65
1_lU0-eSWJCRvNGk78Zh9Q,4.33333333333
McikHxxEqZ2X0joaRNKlaw,3.34848484848
1qCuOcks5HRv67OHovAVpg,3.69696969697
57HN9fGRar_GckBmgHgemA,3.66666666667
b12U9TFESStdy7CsTtcOeg,2.625
3ZVKmuK2l7uXPE6lXY4Dbg,2.5
jLtS1O2tN7zNop8htTe9ZA,1.66666666667
woOVJ0Z2f6XNCDntHA3b_g,4.44444444444
0hrB2iwQZ52VZcZWYywXrA,4.21428571429
LO2CjrNL8DXkvm9uALgRjQ,3.0
gClSqcwuLsgyZRCzhJc7Dg,2.9
QoDa50dc7g62xciFygXB9w,3.4
LLJMI-_fSp6OYQuY4rwarw,3.0
